{
  "name": "Rust",
  "build": {
    "dockerfile": "Dockerfile"
  },
  "runArgs": [
    "--cap-add=SYS_PTRACE",
    "--security-opt",
    "seccomp=unconfined"
  ],
  "settings": {
    "terminal.integrated.defaultProfile.shell.linux": "/bin/bash",
    "lldb.executable": "/usr/bin/lldb",
    "rust-analyzer.checkOnSave.command": "clippy",
    "files.watcherExclude": {
      "**/target/**": true
    }
  },
  "extensions": [
    "matklad.rust-analyzer",
    "mutantdino.resourcemonitor",
    "serayuzgur.crates",
    "tamasfe.even-better-toml",
    "vadimcn.vscode-lldb"
  ],
  "remoteUser": "vscode"
}